<?xml version="1.0" encoding="UTF-8" standalone="no"?>
<svg sodipodi:docname="bouche_lavage_arrosage.svg" inkscape:version="1.1.1 (3bf5ae0d25, 2021-09-20)" version="1.1" id="svg2" viewBox="0 0 450 449.99999" height="45cm" width="45cm" xmlns:inkscape="http://www.inkscape.org/namespaces/inkscape" xmlns:sodipodi="http://sodipodi.sourceforge.net/DTD/sodipodi-0.dtd" xmlns="http://www.w3.org/2000/svg" xmlns:svg="http://www.w3.org/2000/svg" xmlns:rdf="http://www.w3.org/1999/02/22-rdf-syntax-ns#" xmlns:cc="http://creativecommons.org/ns#" xmlns:dc="http://purl.org/dc/elements/1.1/">
  <defs id="defs4">
    <inkscape:path-effect effect="spiro" id="path-effect9658" is_visible="true" lpeversion="1" />
    <inkscape:path-effect effect="spiro" id="path-effect9639" is_visible="true" lpeversion="1" />
    <inkscape:path-effect effect="spiro" id="path-effect9531" is_visible="true" lpeversion="1" />
    <inkscape:path-effect effect="spiro" id="path-effect9367" is_visible="true" lpeversion="1" />
    <rect x="336" y="-904" width="712" height="696" id="rect2878" />
    <inkscape:path-effect effect="spiro" id="path-effect1188" is_visible="true" lpeversion="1" />
    <inkscape:path-effect effect="spiro" id="path-effect1151" is_visible="true" lpeversion="1" />
    <linearGradient id="linearGradient1076" inkscape:swatch="solid">
      <stop style="stop-color:black;stop-opacity:0.98823529;" offset="0" id="stop1074" />
    </linearGradient>
    <inkscape:path-effect effect="spiro" id="path-effect4686" is_visible="true" lpeversion="1" />
    <inkscape:path-effect effect="spiro" id="path-effect4682" is_visible="true" lpeversion="1" />
    <linearGradient id="linearGradient4325" inkscape:swatch="solid">
      <stop style="stop-color:red;stop-opacity:1;" offset="0" id="stop4323" />
    </linearGradient>
    <inkscape:path-effect effect="spiro" id="path-effect4235" is_visible="true" lpeversion="1" />
    <inkscape:path-effect effect="spiro" id="path-effect2087" is_visible="true" lpeversion="1" />
    <inkscape:path-effect effect="spiro" id="path-effect1593" is_visible="true" lpeversion="1" />
    <linearGradient id="linearGradient1056" inkscape:swatch="solid">
      <stop style="stop-color:red;stop-opacity:1;" offset="0" id="stop1054" />
    </linearGradient>
    <inkscape:path-effect effect="spiro" id="path-effect1051" is_visible="true" lpeversion="1" />
    <linearGradient id="linearGradient914" inkscape:swatch="solid">
      <stop style="stop-color:black;stop-opacity:1;" offset="0" id="stop912" />
    </linearGradient>
    <linearGradient id="linearGradient908" inkscape:swatch="solid">
      <stop style="stop-color:#0000f1;stop-opacity:1;" offset="0" id="stop906" />
    </linearGradient>
    <linearGradient id="linearGradient1055" inkscape:swatch="solid">
      <stop style="stop-color:#000000;stop-opacity:1;" offset="0" id="stop1053" />
    </linearGradient>
    <inkscape:path-effect effect="powerstroke" id="path-effect939" is_visible="true" lpeversion="1" offset_points="0,0.87411428" sort_points="true" interpolator_type="CubicBezierJohan" interpolator_beta="0.2" start_linecap_type="zerowidth" linejoin_type="extrp_arc" miter_limit="4" scale_width="1" end_linecap_type="zerowidth" />
    <inkscape:path-effect effect="powerstroke" id="path-effect933" is_visible="true" lpeversion="1" offset_points="1,0.132292" sort_points="true" interpolator_type="CubicBezierJohan" interpolator_beta="0.2" start_linecap_type="zerowidth" linejoin_type="extrp_arc" miter_limit="4" scale_width="1" end_linecap_type="zerowidth" />
    <linearGradient id="linearGradient6318" inkscape:swatch="solid">
      <stop id="stop6316" offset="0" style="stop-color:#000000;stop-opacity:1;" />
    </linearGradient>
    <inkscape:path-effect lpeversion="0" is_visible="true" id="path-effect6314" effect="spiro" />
    <inkscape:path-effect lpeversion="0" is_visible="true" id="path-effect6310" effect="spiro" />
    <linearGradient id="linearGradient6268" inkscape:swatch="solid">
      <stop id="stop6266" offset="0" style="stop-color:#000000;stop-opacity:1;" />
    </linearGradient>
    <linearGradient id="linearGradient4799" inkscape:swatch="solid">
      <stop id="stop4797" offset="0" style="stop-color:#000000;stop-opacity:1;" />
    </linearGradient>
    <inkscape:path-effect lpeversion="0" is_visible="true" id="path-effect4795" effect="spiro" />
    <linearGradient id="linearGradient4789" inkscape:swatch="solid">
      <stop id="stop4787" offset="0" style="stop-color:#000000;stop-opacity:1;" />
    </linearGradient>
    <inkscape:path-effect lpeversion="0" is_visible="true" id="path-effect4804" effect="spiro" />
    <inkscape:path-effect lpeversion="0" is_visible="true" id="path-effect4800" effect="spiro" />
    <inkscape:path-effect lpeversion="0" is_visible="true" id="path-effect4796" effect="spiro" />
    <inkscape:path-effect lpeversion="0" is_visible="true" id="path-effect4792" effect="spiro" />
    <inkscape:path-effect lpeversion="0" is_visible="true" id="path-effect4788" effect="spiro" />
    <inkscape:path-effect lpeversion="0" is_visible="true" id="path-effect4784" effect="spiro" />
    <inkscape:path-effect lpeversion="0" is_visible="true" id="path-effect4780" effect="spiro" />
    <inkscape:path-effect lpeversion="0" is_visible="true" id="path-effect13822" effect="spiro" />
    <inkscape:path-effect lpeversion="0" is_visible="true" id="path-effect14857" effect="spiro" />
    <inkscape:path-effect lpeversion="0" is_visible="true" id="path-effect14853" effect="spiro" />
    <inkscape:path-effect lpeversion="0" is_visible="true" id="path-effect14849" effect="spiro" />
    <inkscape:path-effect lpeversion="0" is_visible="true" id="path-effect14845" effect="spiro" />
    <linearGradient id="linearGradient14831" inkscape:swatch="solid">
      <stop id="stop14833" offset="0" style="stop-color:#030303;stop-opacity:1;" />
    </linearGradient>
    <linearGradient id="linearGradient14825" inkscape:swatch="solid">
      <stop id="stop14827" offset="0" style="stop-color:#000000;stop-opacity:1;" />
    </linearGradient>
    <linearGradient id="linearGradient14815" inkscape:swatch="solid">
      <stop id="stop14817" offset="0" style="stop-color:#000000;stop-opacity:1;" />
    </linearGradient>
    <inkscape:path-effect lpeversion="0" is_visible="true" id="path-effect8142" effect="spiro" />
    <inkscape:path-effect lpeversion="0" is_visible="true" id="path-effect8138" effect="spiro" />
    <inkscape:path-effect lpeversion="0" is_visible="true" id="path-effect8134" effect="spiro" />
    <inkscape:path-effect lpeversion="0" is_visible="true" id="path-effect8130" effect="spiro" />
    <inkscape:path-effect lpeversion="0" is_visible="true" id="path-effect8113" effect="spiro" />
    <inkscape:path-effect lpeversion="0" is_visible="true" id="path-effect8109" effect="spiro" />
    <inkscape:path-effect lpeversion="0" is_visible="true" id="path-effect8105" effect="spiro" />
    <inkscape:path-effect lpeversion="0" is_visible="true" id="path-effect8101" effect="spiro" />
    <inkscape:path-effect lpeversion="0" is_visible="true" id="path-effect8097" effect="spiro" />
    <inkscape:path-effect lpeversion="0" is_visible="true" id="path-effect8093" effect="spiro" />
    <inkscape:path-effect lpeversion="0" is_visible="true" id="path-effect8084" effect="spiro" />
    <inkscape:path-effect lpeversion="0" is_visible="true" id="path-effect8080" effect="spiro" />
    <inkscape:path-effect lpeversion="0" is_visible="true" id="path-effect8076" effect="spiro" />
    <inkscape:path-effect lpeversion="0" is_visible="true" id="path-effect8072" effect="spiro" />
  </defs>
  <sodipodi:namedview inkscape:lockguides="false" inkscape:document-rotation="0" gridtolerance="10" inkscape:snap-path-mask="false" inkscape:snap-path-clip="false" inkscape:snap-tangential="false" inkscape:snap-perpendicular="false" objecttolerance="7" showguides="true" inkscape:snap-intersection-paths="true" inkscape:snap-bbox-midpoints="true" inkscape:snap-bbox-edge-midpoints="false" inkscape:bbox-nodes="false" inkscape:bbox-paths="false" inkscape:snap-center="true" inkscape:snap-others="true" inkscape:object-paths="true" inkscape:snap-smooth-nodes="true" inkscape:object-nodes="true" inkscape:snap-to-guides="true" inkscape:snap-page="true" inkscape:snap-grids="true" inkscape:snap-bbox="true" inkscape:snap-midpoints="true" inkscape:snap-object-midpoints="true" units="cm" inkscape:window-maximized="0" inkscape:window-y="0" inkscape:window-x="0" inkscape:window-height="1033" inkscape:window-width="1902" inkscape:snap-global="true" showborder="true" inkscape:snap-nodes="false" showgrid="true" inkscape:current-layer="layer1" inkscape:document-units="cm" inkscape:cy="210" inkscape:cx="60" inkscape:zoom="0.25" inkscape:pageshadow="2" inkscape:pageopacity="0.0" borderopacity="1.0" bordercolor="#666666" pagecolor="#ffffff" id="base" inkscape:snap-text-baseline="true" inkscape:guide-bbox="true" inkscape:pagecheckerboard="0">
    <inkscape:grid enabled="false" snapvisiblegridlinesonly="false" empspacing="2" dotted="true" spacingy="0.049999999" spacingx="0.049999999" units="mm" id="grid8068" type="xygrid" />
    <sodipodi:guide position="450.00001,450" orientation="0.70710678,-0.70710678" id="guide9363" />
    <sodipodi:guide position="-1145.1167,1046.9" orientation="0.70710678,-0.70710678" id="guide9482" />
    <sodipodi:guide position="0,450" orientation="-0.70710678,-0.70710678" id="guide9490" />
    <sodipodi:guide position="225.00001,224.99999" orientation="0,-1" id="guide9492" />
    <sodipodi:guide position="225.00001,224.99999" orientation="1,0" id="guide9494" />
    <sodipodi:guide position="107.95,450" orientation="1,0" id="guide1455" />
    <sodipodi:guide position="330.20001,450" orientation="1,0" id="guide1457" />
  </sodipodi:namedview>
  <metadata id="metadata7">
    <rdf:RDF>
      <cc:Work rdf:about="">
        <dc:format>image/svg+xml</dc:format>
        <dc:type rdf:resource="http://purl.org/dc/dcmitype/StillImage" />
      </cc:Work>
    </rdf:RDF>
  </metadata>
  <g style="display:inline" transform="translate(0,4716.9293)" id="layer1" inkscape:groupmode="layer" inkscape:label="Calque 1">
    <ellipse style="fill:none;fill-opacity:1;stroke:black;stroke-width:9.99997;stroke-miterlimit:4;stroke-dasharray:none;stroke-opacity:1;paint-order:markers stroke fill" id="path905" cx="330.20001" cy="-4491.9292" rx="45.000011" ry="45.000008" />
    <circle style="display:inline;fill:none;fill-opacity:1;stroke:black;stroke-width:9.99997;stroke-miterlimit:4;stroke-dasharray:none;stroke-opacity:1;paint-order:markers stroke fill" id="path905-8" cx="107.95" cy="-4491.9292" r="45.000011" />
    <rect style="fill:none;fill-opacity:0.984026;stroke:black;stroke-width:10;paint-order:markers stroke fill" id="rect1371" width="410" height="282.58002" x="20.00001" y="-4633.2192" />
  </g>
</svg>
