<?xml version="1.0" encoding="UTF-8" standalone="no"?>
<svg sodipodi:docname="vanne_papillon.svg" inkscape:version="1.1.1 (3bf5ae0d25, 2021-09-20)" version="1.1" id="svg2" viewBox="0 0 450 449.99999" height="45cm" width="45cm" xmlns:inkscape="http://www.inkscape.org/namespaces/inkscape" xmlns:sodipodi="http://sodipodi.sourceforge.net/DTD/sodipodi-0.dtd" xmlns:xlink="http://www.w3.org/1999/xlink" xmlns="http://www.w3.org/2000/svg" xmlns:svg="http://www.w3.org/2000/svg" xmlns:rdf="http://www.w3.org/1999/02/22-rdf-syntax-ns#" xmlns:cc="http://creativecommons.org/ns#" xmlns:dc="http://purl.org/dc/elements/1.1/">
  <defs id="defs4">
    <rect x="526.08743" y="-678.82249" width="918.27595" height="935.24651" id="rect2896" />
    <linearGradient id="linearGradient16523" inkscape:swatch="solid">
      <stop style="stop-color:#ec0000;stop-opacity:1;" offset="0" id="stop16521" />
    </linearGradient>
    <linearGradient id="linearGradient16326" inkscape:swatch="solid">
      <stop style="stop-color:black;stop-opacity:1;" offset="0" id="stop16324" />
    </linearGradient>
    <inkscape:path-effect effect="bspline" id="path-effect15798" is_visible="true" lpeversion="1" weight="33.333333" steps="2" helper_size="0" apply_no_weight="true" apply_with_weight="true" only_selected="false" />
    <inkscape:path-effect effect="bspline" id="path-effect15794" is_visible="true" lpeversion="1" weight="33.333333" steps="2" helper_size="0" apply_no_weight="true" apply_with_weight="true" only_selected="false" />
    <inkscape:path-effect effect="bspline" id="path-effect15790" is_visible="true" lpeversion="1" weight="33.333333" steps="2" helper_size="0" apply_no_weight="true" apply_with_weight="true" only_selected="false" />
    <inkscape:path-effect effect="bspline" id="path-effect15501" is_visible="true" lpeversion="1" weight="33.333333" steps="2" helper_size="0" apply_no_weight="true" apply_with_weight="true" only_selected="false" />
    <inkscape:path-effect effect="bspline" id="path-effect15493" is_visible="true" lpeversion="1" weight="33.333333" steps="2" helper_size="0" apply_no_weight="true" apply_with_weight="true" only_selected="false" />
    <inkscape:path-effect effect="bspline" id="path-effect15481" is_visible="true" lpeversion="1" weight="33.333333" steps="2" helper_size="0" apply_no_weight="true" apply_with_weight="true" only_selected="false" />
    <inkscape:path-effect effect="bspline" id="path-effect15477" is_visible="true" lpeversion="1" weight="33.333333" steps="2" helper_size="0" apply_no_weight="true" apply_with_weight="true" only_selected="false" />
    <inkscape:path-effect effect="bspline" id="path-effect14833" is_visible="true" lpeversion="1" weight="33.333333" steps="2" helper_size="0" apply_no_weight="true" apply_with_weight="true" only_selected="false" />
    <inkscape:path-effect effect="bspline" id="path-effect14829" is_visible="true" lpeversion="1" weight="33.333333" steps="2" helper_size="0" apply_no_weight="true" apply_with_weight="true" only_selected="false" />
    <linearGradient id="linearGradient14772" inkscape:swatch="solid">
      <stop style="stop-color:black;stop-opacity:1;" offset="0" id="stop14770" />
    </linearGradient>
    <marker style="overflow:visible;" id="Arrow2Lend" refX="0.0" refY="0.0" orient="auto" inkscape:stockid="Arrow2Lend" inkscape:isstock="true">
      <path transform="scale(1.1) rotate(180) translate(1,0)" d="M 8.7185878,4.0337352 L -2.2072895,0.016013256 L 8.7185884,-4.0017078 C 6.9730900,-1.6296469 6.9831476,1.6157441 8.7185878,4.0337352 z " style="stroke:context-stroke;fill-rule:evenodd;fill:context-stroke;stroke-width:0.62500000;stroke-linejoin:round;" id="path13630" />
    </marker>
    <inkscape:path-effect effect="bspline" id="path-effect12897" is_visible="true" lpeversion="1" weight="33.333333" steps="2" helper_size="0" apply_no_weight="true" apply_with_weight="true" only_selected="false" />
    <inkscape:path-effect effect="bspline" id="path-effect12835" is_visible="true" lpeversion="1" weight="33.333333" steps="2" helper_size="0" apply_no_weight="true" apply_with_weight="true" only_selected="false" />
    <inkscape:path-effect effect="bspline" id="path-effect12806" is_visible="true" lpeversion="1" weight="33.333333" steps="2" helper_size="0" apply_no_weight="true" apply_with_weight="true" only_selected="false" />
    <rect x="804" y="-552" width="329.85829" height="376" id="rect2708" />
    <inkscape:path-effect effect="bspline" id="path-effect1048" is_visible="true" lpeversion="1" weight="33.333333" steps="2" helper_size="0" apply_no_weight="true" apply_with_weight="true" only_selected="false" />
    <inkscape:path-effect effect="bspline" id="path-effect1042" is_visible="true" lpeversion="1" weight="33.333333" steps="2" helper_size="0" apply_no_weight="true" apply_with_weight="true" only_selected="false" />
    <linearGradient id="linearGradient1096" inkscape:swatch="solid">
      <stop style="stop-color:black;stop-opacity:1;" offset="0" id="stop1094" />
    </linearGradient>
    <linearGradient id="linearGradient2227" inkscape:swatch="solid">
      <stop style="stop-color:white;stop-opacity:1;" offset="0" id="stop2225" />
    </linearGradient>
    <linearGradient id="linearGradient2221" inkscape:swatch="solid">
      <stop style="stop-color:black;stop-opacity:1;" offset="0" id="stop2219" />
    </linearGradient>
    <linearGradient id="linearGradient2161" inkscape:swatch="solid">
      <stop style="stop-color:white;stop-opacity:1;" offset="0" id="stop2159" />
    </linearGradient>
    <linearGradient id="linearGradient1876" inkscape:swatch="solid">
      <stop style="stop-color:#0000f0;stop-opacity:1;" offset="0" id="stop1874" />
    </linearGradient>
    <inkscape:path-effect effect="bspline" id="path-effect1608" is_visible="true" lpeversion="1" weight="33.333333" steps="2" helper_size="0" apply_no_weight="true" apply_with_weight="true" only_selected="false" />
    <linearGradient id="linearGradient1410" inkscape:swatch="solid">
      <stop style="stop-color:#0000f0;stop-opacity:1;" offset="0" id="stop1408" />
    </linearGradient>
    <marker style="overflow:visible;" id="Arrow1Send" refX="0.0" refY="0.0" orient="auto" inkscape:stockid="Arrow1Send" inkscape:isstock="true">
      <path transform="scale(0.2) rotate(180) translate(6,0)" style="fill-rule:evenodd;fill:context-stroke;stroke:context-stroke;stroke-width:1.0pt;" d="M 0.0,0.0 L 5.0,-5.0 L -12.5,0.0 L 5.0,5.0 L 0.0,0.0 z " id="path1020" />
    </marker>
    <linearGradient id="linearGradient1316" inkscape:swatch="solid">
      <stop style="stop-color:black;stop-opacity:1;" offset="0" id="stop1314" />
    </linearGradient>
    <marker style="overflow:visible;" id="Arrow1Mend" refX="0.0" refY="0.0" orient="auto" inkscape:stockid="Arrow1Mend" inkscape:isstock="true">
      <path transform="scale(0.4) rotate(180) translate(10,0)" style="fill-rule:evenodd;fill:context-stroke;stroke:context-stroke;stroke-width:1.0pt;" d="M 0.0,0.0 L 5.0,-5.0 L -12.5,0.0 L 5.0,5.0 L 0.0,0.0 z " id="path1014" />
    </marker>
    <marker style="overflow:visible;" id="Arrow1Lend" refX="0.0" refY="0.0" orient="auto" inkscape:stockid="Arrow1Lend" inkscape:isstock="true">
      <path transform="scale(0.8) rotate(180) translate(12.5,0)" style="fill-rule:evenodd;fill:context-stroke;stroke:context-stroke;stroke-width:1.0pt;" d="M 0.0,0.0 L 5.0,-5.0 L -12.5,0.0 L 5.0,5.0 L 0.0,0.0 z " id="path1008" />
    </marker>
    <inkscape:path-effect effect="bspline" id="path-effect1003" is_visible="true" lpeversion="1" weight="33.333333" steps="2" helper_size="0" apply_no_weight="true" apply_with_weight="true" only_selected="false" />
    <linearGradient id="linearGradient1055" inkscape:swatch="solid">
      <stop style="stop-color:#000000;stop-opacity:1;" offset="0" id="stop1053" />
    </linearGradient>
    <inkscape:path-effect effect="powerstroke" id="path-effect939" is_visible="true" lpeversion="1" offset_points="0,0.87411428" sort_points="true" interpolator_type="CubicBezierJohan" interpolator_beta="0.2" start_linecap_type="zerowidth" linejoin_type="extrp_arc" miter_limit="4" scale_width="1" end_linecap_type="zerowidth" />
    <inkscape:path-effect effect="powerstroke" id="path-effect933" is_visible="true" lpeversion="1" offset_points="1,0.132292" sort_points="true" interpolator_type="CubicBezierJohan" interpolator_beta="0.2" start_linecap_type="zerowidth" linejoin_type="extrp_arc" miter_limit="4" scale_width="1" end_linecap_type="zerowidth" />
    <linearGradient id="linearGradient6318" inkscape:swatch="solid">
      <stop id="stop6316" offset="0" style="stop-color:#000000;stop-opacity:1;" />
    </linearGradient>
    <inkscape:path-effect lpeversion="0" is_visible="true" id="path-effect6314" effect="spiro" />
    <inkscape:path-effect lpeversion="0" is_visible="true" id="path-effect6310" effect="spiro" />
    <linearGradient id="linearGradient6268" inkscape:swatch="solid">
      <stop id="stop6266" offset="0" style="stop-color:#000000;stop-opacity:1;" />
    </linearGradient>
    <linearGradient id="linearGradient4799" inkscape:swatch="solid">
      <stop id="stop4797" offset="0" style="stop-color:#000000;stop-opacity:1;" />
    </linearGradient>
    <inkscape:path-effect lpeversion="0" is_visible="true" id="path-effect4795" effect="spiro" />
    <linearGradient id="linearGradient4789" inkscape:swatch="solid">
      <stop id="stop4787" offset="0" style="stop-color:#000000;stop-opacity:1;" />
    </linearGradient>
    <inkscape:path-effect lpeversion="0" is_visible="true" id="path-effect4804" effect="spiro" />
    <inkscape:path-effect lpeversion="0" is_visible="true" id="path-effect4800" effect="spiro" />
    <inkscape:path-effect lpeversion="0" is_visible="true" id="path-effect4796" effect="spiro" />
    <inkscape:path-effect lpeversion="0" is_visible="true" id="path-effect4792" effect="spiro" />
    <inkscape:path-effect lpeversion="0" is_visible="true" id="path-effect4788" effect="spiro" />
    <inkscape:path-effect lpeversion="0" is_visible="true" id="path-effect4784" effect="spiro" />
    <inkscape:path-effect lpeversion="0" is_visible="true" id="path-effect4780" effect="spiro" />
    <inkscape:path-effect lpeversion="0" is_visible="true" id="path-effect13822" effect="spiro" />
    <inkscape:path-effect lpeversion="0" is_visible="true" id="path-effect14857" effect="spiro" />
    <inkscape:path-effect lpeversion="0" is_visible="true" id="path-effect14853" effect="spiro" />
    <inkscape:path-effect lpeversion="0" is_visible="true" id="path-effect14849" effect="spiro" />
    <inkscape:path-effect lpeversion="0" is_visible="true" id="path-effect14845" effect="spiro" />
    <linearGradient id="linearGradient14831" inkscape:swatch="solid">
      <stop id="stop14833" offset="0" style="stop-color:#030303;stop-opacity:1;" />
    </linearGradient>
    <linearGradient id="linearGradient14825" inkscape:swatch="solid">
      <stop id="stop14827" offset="0" style="stop-color:#000000;stop-opacity:1;" />
    </linearGradient>
    <linearGradient id="linearGradient14815" inkscape:swatch="solid">
      <stop id="stop14817" offset="0" style="stop-color:#000000;stop-opacity:1;" />
    </linearGradient>
    <inkscape:path-effect lpeversion="0" is_visible="true" id="path-effect8142" effect="spiro" />
    <inkscape:path-effect lpeversion="0" is_visible="true" id="path-effect8138" effect="spiro" />
    <inkscape:path-effect lpeversion="0" is_visible="true" id="path-effect8134" effect="spiro" />
    <inkscape:path-effect lpeversion="0" is_visible="true" id="path-effect8130" effect="spiro" />
    <inkscape:path-effect lpeversion="0" is_visible="true" id="path-effect8113" effect="spiro" />
    <inkscape:path-effect lpeversion="0" is_visible="true" id="path-effect8109" effect="spiro" />
    <inkscape:path-effect lpeversion="0" is_visible="true" id="path-effect8105" effect="spiro" />
    <inkscape:path-effect lpeversion="0" is_visible="true" id="path-effect8101" effect="spiro" />
    <inkscape:path-effect lpeversion="0" is_visible="true" id="path-effect8097" effect="spiro" />
    <inkscape:path-effect lpeversion="0" is_visible="true" id="path-effect8093" effect="spiro" />
    <inkscape:path-effect lpeversion="0" is_visible="true" id="path-effect8084" effect="spiro" />
    <inkscape:path-effect lpeversion="0" is_visible="true" id="path-effect8080" effect="spiro" />
    <inkscape:path-effect lpeversion="0" is_visible="true" id="path-effect8076" effect="spiro" />
    <inkscape:path-effect lpeversion="0" is_visible="true" id="path-effect8072" effect="spiro" />
    <linearGradient inkscape:collect="always" xlink:href="#linearGradient16523" id="linearGradient16525" x1="-3976.4408" y1="-7802.5915" x2="-3819.3693" y2="-7802.5915" gradientUnits="userSpaceOnUse" gradientTransform="matrix(0,0.37180451,-0.60000572,0,-8577.3135,-6498.4163)" />
    <linearGradient inkscape:collect="always" xlink:href="#linearGradient16523" id="linearGradient16865" gradientUnits="userSpaceOnUse" x1="-3976.4408" y1="-7802.5915" x2="-3819.3693" y2="-7802.5915" gradientTransform="matrix(0,0.37180451,-0.60000572,0,-8577.3135,-6498.4163)" />
    <linearGradient inkscape:collect="always" xlink:href="#linearGradient16523" id="linearGradient16867" gradientUnits="userSpaceOnUse" x1="-3976.4408" y1="-7802.5915" x2="-3819.3693" y2="-7802.5915" gradientTransform="matrix(0,0.37180451,-0.60000572,0,-8577.3135,-6498.4163)" />
    <linearGradient inkscape:collect="always" xlink:href="#linearGradient16523" id="linearGradient16869" gradientUnits="userSpaceOnUse" x1="-3976.4408" y1="-7802.5915" x2="-3819.3693" y2="-7802.5915" gradientTransform="matrix(0,0.37180451,-0.60000572,0,-8577.3135,-6498.4163)" />
  </defs>
  <sodipodi:namedview inkscape:lockguides="false" inkscape:document-rotation="0" gridtolerance="10" inkscape:snap-path-mask="false" inkscape:snap-path-clip="false" inkscape:snap-tangential="false" inkscape:snap-perpendicular="false" objecttolerance="7" showguides="true" inkscape:snap-intersection-paths="true" inkscape:snap-bbox-midpoints="true" inkscape:snap-bbox-edge-midpoints="true" inkscape:bbox-nodes="true" inkscape:bbox-paths="true" inkscape:snap-center="true" inkscape:snap-others="true" inkscape:object-paths="true" inkscape:snap-smooth-nodes="true" inkscape:object-nodes="true" inkscape:snap-to-guides="true" inkscape:snap-page="true" inkscape:snap-grids="true" inkscape:snap-bbox="true" inkscape:snap-midpoints="true" inkscape:snap-object-midpoints="true" units="cm" inkscape:window-maximized="1" inkscape:window-y="-9" inkscape:window-x="-9" inkscape:window-height="1051" inkscape:window-width="1920" inkscape:snap-global="true" showborder="true" inkscape:snap-nodes="true" showgrid="true" inkscape:current-layer="layer1" inkscape:document-units="cm" inkscape:cy="596.79811" inkscape:cx="-152.73506" inkscape:zoom="0.1767767" inkscape:pageshadow="2" inkscape:pageopacity="0.0" borderopacity="1.0" bordercolor="#666666" pagecolor="#ffffff" id="base" inkscape:snap-text-baseline="true" inkscape:guide-bbox="true" inkscape:pagecheckerboard="0">
    <inkscape:grid enabled="false" snapvisiblegridlinesonly="false" empspacing="2" dotted="true" spacingy="0.049999999" spacingx="0.049999999" units="mm" id="grid8068" type="xygrid" />
    <sodipodi:guide position="450.00001,450.00001" orientation="0.70710678,-0.70710678" id="guide1094" />
    <sodipodi:guide position="0,450" orientation="-0.70710678,-0.70710678" id="guide960" />
  </sodipodi:namedview>
  <metadata id="metadata7">
    <rdf:RDF>
      <cc:Work rdf:about="">
        <dc:format>image/svg+xml</dc:format>
        <dc:type rdf:resource="http://purl.org/dc/dcmitype/StillImage" />
      </cc:Work>
    </rdf:RDF>
  </metadata>
  <g style="display:inline" transform="translate(0,4716.9293)" id="layer1" inkscape:groupmode="layer" inkscape:label="Calque 1">
    <ellipse id="path1044" style="fill:black;stroke:none;stroke-width:0.264584" cx="343.79254" cy="-4703.334" rx="0.018520834" ry="0.013229085" />
    <g id="g16447" style="fill:url(#linearGradient16525);fill-opacity:1;stroke:none;stroke-width:4.72319;stroke-miterlimit:4;stroke-dasharray:none;stroke-opacity:1" transform="matrix(0,-1.6666509,2.6895788,0,21293.736,-10988.014)">
      <path style="fill:url(#linearGradient16865);fill-opacity:1;fill-rule:evenodd;stroke:none;stroke-width:4.72319;stroke-linecap:butt;stroke-linejoin:miter;stroke-miterlimit:4;stroke-dasharray:none;stroke-opacity:1" d="m -3897.905,-7840.8237 c 0,0 -75.0003,75 -75.0003,75" id="path15479" inkscape:path-effect="#path-effect15481" inkscape:original-d="m -3897.905,-7840.8237 -75.0003,75" sodipodi:nodetypes="cc" />
      <path style="fill:url(#linearGradient16867);fill-opacity:1;fill-rule:evenodd;stroke:none;stroke-width:4.72319;stroke-linecap:butt;stroke-linejoin:miter;stroke-miterlimit:4;stroke-dasharray:none;stroke-opacity:1" d="m -3897.905,-7840.8237 c 0,0 75.0002,75 75.0002,75" id="path15792" inkscape:path-effect="#path-effect15794" inkscape:original-d="m -3897.905,-7840.8237 75.0002,75" />
      <path style="fill:url(#linearGradient16869);fill-opacity:1;fill-rule:evenodd;stroke:none;stroke-width:4.72319;stroke-linecap:butt;stroke-linejoin:miter;stroke-miterlimit:4;stroke-dasharray:none;stroke-opacity:1" d="m -3972.9053,-7765.8237 c 0,0 150.0005,0 150.0005,0" id="path15796" inkscape:path-effect="#path-effect15798" inkscape:original-d="m -3972.9053,-7765.8237 h 150.0005" sodipodi:nodetypes="cc" />
    </g>
    <path style="fill:black;fill-opacity:1;stroke:none;stroke-width:10;stroke-linecap:round;stroke-linejoin:round;stroke-miterlimit:4;stroke-dasharray:none;stroke-opacity:1;paint-order:fill markers stroke" d="m 309.03026,-4439.8591 -84.02967,-52.0708 84.02967,-52.0708 84.02967,-52.0708 v 104.1416 104.1416 z" id="path16564" />
    <path style="display:inline;fill:black;fill-opacity:1;stroke:none;stroke-width:10;stroke-linecap:round;stroke-linejoin:round;stroke-miterlimit:4;stroke-dasharray:none;stroke-opacity:1;paint-order:fill markers stroke" d="m 140.97092,-4544.0006 84.0297,52.0706 -84.0297,52.0709 -84.029708,52.0708 v -104.1417 -104.1415 z" id="path16564-1" />
    <text xml:space="preserve" transform="matrix(1.5013089e-4,-0.2645833,0.2645833,1.5013089e-4,374.9249,-4207.8171)" id="text2894" style="font-style:normal;font-variant:normal;font-weight:normal;font-stretch:normal;font-size:453.543px;line-height:87.6984px;font-family:Arial;-inkscape-font-specification:'Arial, Normal';font-variant-ligatures:normal;font-variant-caps:normal;font-variant-numeric:normal;font-variant-east-asian:normal;letter-spacing:0px;word-spacing:0px;writing-mode:tb-rl;white-space:pre;shape-inside:url(#rect2896);fill:black;stroke:black;stroke-width:1px;stroke-linecap:butt;stroke-linejoin:miter;stroke-opacity:1"><tspan x="1400.5141" y="-678.82227" id="tspan1086">P</tspan></text>
  </g>
</svg>
